…
------------------------------------------------------------------------

Exercise 4
----------

Are baskets with diapers in them more likely than average to have beer in them too? Legend has it that placing these two product categories closer together can increase beer sales [(Powers 2002)](https://www.theregister.co.uk/2006/08/15/beer_diapers/). Using the following starter code, calculate [lift](https://en.wikipedia.org/wiki/Lift_(data_mining)) for the "association rule" that diapers in a basket (i.e., `sub_commodity_desc == 'BABY DIAPERS'`) imply beer is in the basket (i.e., `sub_commodity_desc == 'BEERALEMALT LIQUORS'`). Is the association between these products practically significant in `my_transaction_data`?

    ## Joining, by = c("product_id", "manufacturer", "department", "brand", "commodity_desc", "sub_commodity_desc", "curr_size_of_product")

    ## # A tibble: 2,581,266 x 31
    ##    household_key  basket_id   day product_id quantity sales_value store_id
    ##            <int>      <dbl> <int>      <int>    <int>       <dbl>    <int>
    ##  1          2375    2.70e10     1    1004906        1       1.39       364
    ##  2          2375    2.70e10     1    1033142        1       0.820      364
    ##  3          2375    2.70e10     1    1036325        1       0.990      364
    ##  4          2375    2.70e10     1    1082185        1       1.21       364
    ##  5          2375    2.70e10     1    8160430        1       1.50       364
    ##  6          2375    2.70e10     1     826249        2       1.98       364
    ##  7          2375    2.70e10     1    1043142        1       1.57       364
    ##  8          2375    2.70e10     1    1085983        1       2.99       364
    ##  9          2375    2.70e10     1    1102651        1       1.89       364
    ## 10          2375    2.70e10     1    6423775        1       2.00       364
    ## # ... with 2,581,256 more rows, and 24 more variables: retail_disc <dbl>,
    ## #   trans_time <chr>, week_no <int>, coupon_disc <dbl>,
    ## #   coupon_match_disc <dbl>, manufacturer <int>, department <chr>,
    ## #   brand <chr>, commodity_desc <chr>, sub_commodity_desc <chr>,
    ## #   curr_size_of_product <chr>, age_desc <chr>, marital_status_code <chr>,
    ## #   income_desc <chr>, homeowner_desc <chr>, hh_comp_desc <chr>,
    ## #   household_size_desc <chr>, kid_category_desc <chr>,
    ## #   regular_price <dbl>, loyalty_price <dbl>, coupon_price <dbl>,
    ## #   purchase_price <dbl>, diapers <lgl>, beer <lgl>
…
