…
``` r
(transaction_data <- transaction_data %>% 
  mutate(
    regular_price     = (sales_value + retail_disc + coupon_match_disc) / 
                        quantity,
    loyalty_price     = (sales_value + coupon_match_disc) / 
                        quantity,
    coupon_price      = (sales_value - coupon_disc) / 
                        quantity
  ) %>% 
  select(regular_price, loyalty_price, coupon_price, everything())
)
```

    ## # A tibble: 2,595,732 x 15
    ##    regular_price loyalty_price coupon_price quantity sales_value
    ##            <dbl>         <dbl>        <dbl>    <int>       <dbl>
    ##  1         1.99          1.39         1.39         1       1.39 
    ##  2         0.820         0.820        0.820        1       0.820
    ##  3         1.29          0.990        0.990        1       0.990
    ##  4         1.21          1.21         1.21         1       1.21 
    ##  5         1.89          1.50         1.50         1       1.50 
    ##  6         1.29          0.990        0.990        2       1.98 
    ##  7         2.25          1.57         1.57         1       1.57 
    ##  8         3.39          2.99         2.99         1       2.99 
    ##  9         1.89          1.89         1.89         1       1.89 
    ## 10         2.79          2.00         2.00         1       2.00 
    ## # ... with 2,595,722 more rows, and 10 more variables: retail_disc <dbl>,
    ## #   coupon_disc <dbl>, coupon_match_disc <dbl>, household_key <int>,
    ## #   store_id <int>, basket_id <dbl>, product_id <int>, week_no <int>,
    ## #   day <int>, trans_time <chr>
…
    regular_price > 0
  ) %>%
  mutate(
    pct_loyalty_disc     = 1 - (loyalty_price / regular_price)
  ) %>%
  group_by(store_id) %>%
  summarize(
    total_sales_value    = sum(sales_value), 
    avg_pct_loyalty_disc = mean(pct_loyalty_disc)
  ) %>%
  filter(total_sales_value > 10000) %>%
  arrange(desc(avg_pct_loyalty_disc))
```

    ## # A tibble: 111 x 3
    ##    store_id total_sales_value avg_pct_loyalty_disc
    ##       <int>             <dbl>                <dbl>
    ##  1      341            44529.                0.188
    ##  2      379            10848.                0.177
    ##  3      306            52117.                0.173
    ##  4      436            50735.                0.157
    ##  5      403            61150.                0.155
    ##  6    31401            34782.                0.153
    ##  7      286            15485.                0.152
    ##  8      311            61592.                0.152
    ##  9      422            96515.                0.152
    ## 10      443            70761.                0.152
    ## # ... with 101 more rows
