…
This can be confirmed numerically from the data:

``` r
pb_and_j_data %>% 
  count(product_size) %>% 
  arrange(-n)
```

    ## # A tibble: 22 x 2
    ##    product_size     n
    ##    <fct>        <int>
    ##  1 18            5267
    ##  2 32            1403
    ##  3 12            1033
    ##  4 28             890
    ##  5 16             842
    ##  6 <NA>           694
    ##  7 40             525
    ##  8 13             301
    ##  9 15             275
    ## 10 64             259
    ## # ... with 12 more rows
