…
``` r
left_join(transaction_data, product) %>%
  group_by(sub_commodity_desc, week_no) %>%
  summarize(sales_value_category = sum(sales_value, na.rm = TRUE)) %>%
  filter(week_no == 52 | week_no == 102) %>%
  mutate(
    revenue_growth = ifelse(lag(sales_value_category) >= 100,
                            (sales_value_category - lag(sales_value_category)) /
                             lag(sales_value_category), NA)
  ) %>%
  arrange(desc(revenue_growth))
```

    ## # A tibble: 2,691 x 4
    ## # Groups:   sub_commodity_desc [1,520]
    ##    sub_commodity_desc             week_no sales_value_cate… revenue_growth
    ##    <chr>                            <int>             <dbl>          <dbl>
    ##  1 SELECT BEEF                        102              356.          0.852
    ##  2 LUNCH COMBO                        102              240.          0.827
    ##  3 CHICKEN BREAST BONE IN             102              243.          0.495
    ##  4 ENHANCED                           102              723.          0.403
    ##  5 RAZORS AND BLADES                  102              202.          0.387
    ##  6 ADULT CEREAL                       102              324.          0.381
    ##  7 ADULT ANALGESICS                   102              258.          0.378
    ##  8 PIZZA/ECONOMY                      102              139.          0.372
    ##  9 NON-CRBNTD DRNKING/MNERAL WATE     102              258.          0.363
    ## 10 SCOOP LITTER                       102              166.          0.305
    ## # ... with 2,681 more rows
