…
``` r
(transactions <- transactions %>% 
  mutate(
    regular_price = (sales_value + retail_disc + coupon_match_disc) / 
                     quantity,
    loyalty_price = (sales_value + coupon_match_disc) / 
                     quantity,
    coupon_price  = (sales_value - coupon_disc) / 
                     quantity
  )
)
```

    ## # A tibble: 1,469,307 x 14
    ##    household_id store_id basket_id product_id quantity sales_value
    ##    <chr>        <chr>    <chr>     <chr>         <dbl>       <dbl>
    ##  1 900          330      31198570… 1095275           1        0.5 
    ##  2 900          330      31198570… 9878513           1        0.99
    ##  3 1228         406      31198655… 1041453           1        1.43
    ##  4 906          319      31198705… 1020156           1        1.5 
    ##  5 906          319      31198705… 1053875           2        2.78
    ##  6 906          319      31198705… 1060312           1        5.49
    ##  7 906          319      31198705… 1075313           1        1.5 
    ##  8 1058         381      31198676… 985893            1        1.88
    ##  9 1058         381      31198676… 988791            1        1.5 
    ## 10 1058         381      31198676… 9297106           1        2.69
    ## # … with 1,469,297 more rows, and 8 more variables: retail_disc <dbl>,
    ## #   coupon_disc <dbl>, coupon_match_disc <dbl>, week <int>,
    ## #   transaction_timestamp <dttm>, regular_price <dbl>,
    ## #   loyalty_price <dbl>, coupon_price <dbl>
…
    regular_price > 0
  ) %>%
  mutate(
    pct_loyalty_disc     = 1 - (loyalty_price / regular_price)
  ) %>%
  group_by(store_id) %>%
  summarize(
    total_sales_value    = sum(sales_value), 
    avg_pct_loyalty_disc = mean(pct_loyalty_disc)
  ) %>%
  filter(total_sales_value > 10000) %>%
  arrange(desc(avg_pct_loyalty_disc))
```

    ## # A tibble: 106 x 3
    ##    store_id total_sales_value avg_pct_loyalty_disc
    ##    <chr>                <dbl>                <dbl>
    ##  1 341                 24163.                0.187
    ##  2 306                 27890.                0.164
    ##  3 436                 29880.                0.157
    ##  4 31401               20265.                0.154
    ##  5 403                 32507.                0.153
    ##  6 422                 58873.                0.152
    ##  7 288                 21336.                0.152
    ##  8 370                 31398.                0.151
    ##  9 311                 37335.                0.150
    ## 10 443                 38471.                0.149
    ## # … with 96 more rows
…
